{
  "userId": "$$userId$$",
  "employeeId": "$$employeeId$$",
  "combinedFacility": "$$CombinedFacility$$",
  "eFmFmClientBranchPO": {
    "branchId": "$$facility$$"
  },
  "searchType": "userName"
}